{
  "embedTypes": ["div", "iframe"],
  "language": "fr",
  "title": "Représentation binaire des entiers naturels",
  "license": "CC BY-SA",
  "extraTitle": "Représentation binaire des entiers naturels",
  "mainLibrary": "H5P.DragText",
  "preloadedDependencies": [
    { "machineName": "FontAwesome", "majorVersion": 4, "minorVersion": 5 },
    { "machineName": "jQuery.ui", "majorVersion": 1, "minorVersion": 10 },
    { "machineName": "H5P.JoubelUI", "majorVersion": 1, "minorVersion": 3 },
    { "machineName": "H5P.Question", "majorVersion": 1, "minorVersion": 4 },
    { "machineName": "H5P.DragText", "majorVersion": 1, "minorVersion": 8 }
  ],
  "authors": [{ "name": "Benjamin Abel", "role": "Author" }],
  "licenseVersion": "4.0"
}
