{
  "taskDescription": "Classe les images dans l&#039;ordre chronologique.",
  "altTaskDescription": "Make the following list be ordered correctly. Use the cursor keys to navigate through the list items, use space to activate or deactivate an item and the cursor keys to move it",
  "sequenceImages": [
    {
      "image": {
        "path": "images/image-5d024c6012b73-O5bw5yg-q.png",
        "mime": "image/png",
        "copyright": {
          "license": "PD",
          "version": "CC0 1.0",
          "author": "Encyclopædia Britannica",
          "source": "https://commons.wikimedia.org/wiki/File:Abacus_6.png",
          "title": "Boulier"
        },
        "width": 247,
        "height": 145
      },
      "imageDescription": "Un boulier"
    },
    {
      "image": {
        "path": "images/image-5d024db3bd4e4-Aiptsd9hA1.JPG",
        "mime": "image/jpeg",
        "copyright": {
          "license": "CC BY-SA",
          "version": "3.0",
          "source": "https://commons.wikimedia.org/wiki/File:Napier%27s_calculating_tables.JPG",
          "title": "Table à calculer de Napier",
          "author": "Kim Traynor"
        },
        "width": 256,
        "height": 197
      },
      "imageDescription": "Table à calculer de Napier"
    },
    {
      "image": {
        "path": "images/image-5d024e672d914-s63v9827tF.jpg",
        "mime": "image/jpeg",
        "copyright": {
          "license": "GNU GPL",
          "author": "David.Monniaux",
          "version": "v3",
          "source": "https://commons.wikimedia.org/wiki/File:Arts_et_Metiers_Pascaline_dsc03869.jpg",
          "title": "La Pascaline"
        },
        "width": 256,
        "height": 140
      },
      "imageDescription": "Machine à calculer de Blaise Pascal"
    },
    {
      "image": {
        "path": "images/image-5d024f8994615-XdpS5zvCxe.jpg",
        "mime": "image/jpeg",
        "copyright": {
          "license": "PD",
          "title": "Machine de Baggage",
          "version": "CC PDM"
        },
        "width": 256,
        "height": 338
      },
      "imageDescription": "Machine de Baggage"
    },
    {
      "image": {
        "path": "images/image-5d024f1d21ba3-9IJPZW2xws.jpg",
        "mime": "image/jpeg",
        "copyright": {
          "license": "PD",
          "source": "https://commons.wikimedia.org/wiki/File:Early_SSA_accounting_operations.jpg",
          "version": "CC PDM"
        },
        "width": 473,
        "height": 578
      },
      "imageDescription": "Machine à cartes perforées"
    },
    {
      "image": {
        "path": "images/image-5d02500d1d11c-23EQCRHny1.JPG",
        "mime": "image/jpeg",
        "copyright": {
          "license": "CC BY-SA",
          "author": "Venusianer",
          "version": "3.0",
          "source": "https://commons.wikimedia.org/wiki/File:Z3_Deutsches_Museum.JPG",
          "title": "Réplique de la première machine électromécanique Z3"
        },
        "width": 256,
        "height": 192
      },
      "imageDescription": "Réplique de la première machine électromécanique Z3"
    },
    {
      "imageDescription": "Colossus, le premier ordinateur entièrement électronique programmable.",
      "image": {
        "path": "images/image-5d0250e46abb6-YT_jAXiIXc.png",
        "mime": "image/png",
        "copyright": {
          "license": "PD",
          "title": "Colossus, le premier ordinateur entièrement électronique programmable.",
          "version": "CC PDM"
        },
        "width": 256,
        "height": 180
      }
    },
    {
      "imageDescription": "Invention du transistor qui permet de remplacer les tubes électroniques beaucoup plus gourmands en énergie.",
      "image": {
        "path": "images/image-5d0254ed277ab-hIp_-eV-QI.jpg",
        "mime": "image/jpeg",
        "copyright": {
          "license": "PD",
          "title": "Invention du transistor qui permet de remplacer les tubes électroniques beaucoup plus gourmands en énergie.",
          "source": "https://commons.wikimedia.org/wiki/File:Replica-of-first-transistor.jpg",
          "version": "CC PDM"
        },
        "width": 500,
        "height": 448
      }
    },
    {
      "image": {
        "path": "images/image-5d0251a695cea-APRoeRAY02.jpg",
        "mime": "image/jpeg",
        "copyright": {
          "license": "CC BY-SA",
          "title": "IBM-650: le premier ordinateur construit en grande quantité.",
          "version": "4.0",
          "author": "Mike Cowlishaw",
          "source": "https://commons.wikimedia.org/wiki/File:IBM-650-panel.jpg"
        },
        "width": 284,
        "height": 300
      },
      "imageDescription": "IBM-650: le premier ordinateur construit en grande quantité."
    },
    {
      "image": {
        "path": "images/image-5d0252cd9badf-erB_qle7mP.jpg",
        "mime": "image/jpeg",
        "copyright": {
          "license": "CC BY-SA",
          "title": "Le premier microprocesseur qui ouvre la voie à la miniaturisation de l&#039;informatique.",
          "author": "Thomas Nguyen",
          "version": "4.0",
          "source": "https://commons.wikimedia.org/wiki/File:Intel_C4004.jpg"
        },
        "width": 256,
        "height": 171
      },
      "imageDescription": "Le premier microprocesseur qui ouvre la voie à la miniaturisation de l&#039;informatique."
    },
    {
      "image": {
        "path": "images/image-5d0253732cf0c-QesJXeJUt2.jpg",
        "mime": "image/jpeg",
        "copyright": {
          "license": "PD",
          "title": "Apple II un des premiers micro-ordinateurs.",
          "version": "CC PDM"
        },
        "width": 256,
        "height": 192
      },
      "imageDescription": "Apple II un des premiers micro-ordinateurs."
    }
  ],
  "behaviour": {
    "enableSolution": true,
    "enableRetry": true,
    "enableResume": true
  },
  "l10n": {
    "totalMoves": "Total Moves",
    "timeSpent": "Time spent",
    "score": "You got @score of @total points",
    "checkAnswer": "Check",
    "tryAgain": "Retry",
    "showSolution": "ShowSolution",
    "resume": "Resume",
    "audioNotSupported": "Audio Error",
    "ariaPlay": "Play the corresponding audio",
    "ariaMoveDescription": "Moved @cardDesc from @posSrc to @posDes",
    "ariaCardDesc": "sequencing item"
  }
}
